<?xml version="1.0" encoding="UTF-8" standalone="no"?><svg xmlns="http://www.w3.org/2000/svg" xmlns:xlink="http://www.w3.org/1999/xlink" contentScriptType="application/ecmascript" contentStyleType="text/css" height="1031px" preserveAspectRatio="none" style="width:799px;height:1031px;" version="1.1" viewBox="0 0 799 1031" width="799px" zoomAndPan="magnify"><defs><filter height="300%" id="f71bz347d1zr3" width="300%" x="-1" y="-1"><feGaussianBlur result="blurOut" stdDeviation="2.0"/><feColorMatrix in="blurOut" result="blurOut2" type="matrix" values="0 0 0 0 0 0 0 0 0 0 0 0 0 0 0 0 0 0 .4 0"/><feOffset dx="4.0" dy="4.0" in="blurOut2" result="blurOut3"/><feBlend in="SourceGraphic" in2="blurOut3" mode="normal"/></filter></defs><g><ellipse cx="382.75" cy="20" fill="#000000" filter="url(#f71bz347d1zr3)" rx="10" ry="10" style="stroke:none;stroke-width:1.0;"/><rect fill="#FEFECE" filter="url(#f71bz347d1zr3)" height="35.0938" rx="12.5" ry="12.5" style="stroke:#A80036;stroke-width:1.5;" width="374" x="195.75" y="50"/><text fill="#000000" font-family="sans-serif" font-size="12" lengthAdjust="spacing" textLength="354" x="205.75" y="72.457">Считать папку репозитория и файлы из репозитория в список</text><rect fill="#FEFECE" filter="url(#f71bz347d1zr3)" height="35.0938" rx="12.5" ry="12.5" style="stroke:#A80036;stroke-width:1.5;" width="145" x="310.25" y="149.0938"/><text fill="#000000" font-family="sans-serif" font-size="12" lengthAdjust="spacing" textLength="125" x="320.25" y="171.5508">Перейти в подкаталог</text><rect fill="#FEFECE" filter="url(#f71bz347d1zr3)" height="35.0938" rx="12.5" ry="12.5" style="stroke:#A80036;stroke-width:1.5;" width="170" x="297.75" y="204.1875"/><text fill="#000000" font-family="sans-serif" font-size="12" lengthAdjust="spacing" textLength="150" x="307.75" y="226.6445">Создать временную папку</text><rect fill="#FEFECE" filter="url(#f71bz347d1zr3)" height="35.0938" rx="12.5" ry="12.5" style="stroke:#A80036;stroke-width:1.5;" width="275" x="245.25" y="259.2813"/><text fill="#000000" font-family="sans-serif" font-size="12" lengthAdjust="spacing" textLength="255" x="255.25" y="281.7383">Переместить в нее текущие SVG-диаграммы</text><rect fill="#FEFECE" filter="url(#f71bz347d1zr3)" height="35.0938" rx="12.5" ry="12.5" style="stroke:#A80036;stroke-width:1.5;" width="254" x="255.75" y="314.375"/><text fill="#000000" font-family="sans-serif" font-size="12" lengthAdjust="spacing" textLength="234" x="265.75" y="336.832">Скомпилировать новые SVG-диаграммы</text><rect fill="#FEFECE" filter="url(#f71bz347d1zr3)" height="35.0938" rx="12.5" ry="12.5" style="stroke:#A80036;stroke-width:1.5;" width="270" x="247.75" y="372.4688"/><text fill="#000000" font-family="sans-serif" font-size="12" lengthAdjust="spacing" textLength="250" x="257.75" y="394.9258">Сравнить текущие и новые SVG-диаграммы</text><polygon fill="#FEFECE" filter="url(#f71bz347d1zr3)" points="273.75,427.5625,491.75,427.5625,503.75,439.5625,491.75,451.5625,273.75,451.5625,261.75,439.5625,273.75,427.5625" style="stroke:#A80036;stroke-width:1.5;"/><text fill="#000000" font-family="sans-serif" font-size="11" lengthAdjust="spacing" textLength="218" x="273.75" y="444.0635">Есть хотя бы одна измененная диаграмма</text><text fill="#000000" font-family="sans-serif" font-size="11" lengthAdjust="spacing" textLength="19" x="242.75" y="437.1455">Нет</text><text fill="#000000" font-family="sans-serif" font-size="11" lengthAdjust="spacing" textLength="14" x="503.75" y="437.1455">Да</text><rect fill="#FEFECE" filter="url(#f71bz347d1zr3)" height="50.1875" rx="12.5" ry="12.5" style="stroke:#A80036;stroke-width:1.5;" width="165" x="169.25" y="461.5625"/><text fill="#000000" font-family="sans-serif" font-size="12" lengthAdjust="spacing" textLength="127" x="179.25" y="484.0195">Увеличить количество</text><text fill="#000000" font-family="sans-serif" font-size="12" lengthAdjust="spacing" textLength="145" x="179.25" y="499.1133">неизмененных диаграмм</text><rect fill="#FEFECE" filter="url(#f71bz347d1zr3)" height="35.0938" rx="12.5" ry="12.5" style="stroke:#A80036;stroke-width:1.5;" width="237" x="395.25" y="461.5625"/><text fill="#000000" font-family="sans-serif" font-size="12" lengthAdjust="spacing" textLength="217" x="405.25" y="484.0195">Вывести имя измененной диаграммы</text><polygon fill="#FEFECE" filter="url(#f71bz347d1zr3)" points="382.75,517.75,394.75,529.75,382.75,541.75,370.75,529.75,382.75,517.75" style="stroke:#A80036;stroke-width:1.5;"/><rect fill="#FEFECE" filter="url(#f71bz347d1zr3)" height="35.0938" rx="12.5" ry="12.5" style="stroke:#A80036;stroke-width:1.5;" width="170" x="297.75" y="561.75"/><text fill="#000000" font-family="sans-serif" font-size="12" lengthAdjust="spacing" textLength="150" x="307.75" y="584.207">Удалить временную папку</text><polygon fill="#FEFECE" filter="url(#f71bz347d1zr3)" points="382.75,105.0938,394.75,117.0938,382.75,129.0938,370.75,117.0938,382.75,105.0938" style="stroke:#A80036;stroke-width:1.5;"/><polygon fill="#FEFECE" filter="url(#f71bz347d1zr3)" points="322.75,616.8438,442.75,616.8438,454.75,628.8438,442.75,640.8438,322.75,640.8438,310.75,628.8438,322.75,616.8438" style="stroke:#A80036;stroke-width:1.5;"/><text fill="#000000" font-family="sans-serif" font-size="11" lengthAdjust="spacing" textLength="120" x="322.75" y="633.3447">последний подкаталог?</text><text fill="#000000" font-family="sans-serif" font-size="11" lengthAdjust="spacing" textLength="19" x="454.75" y="626.4268">Нет</text><polygon fill="#FEFECE" filter="url(#f71bz347d1zr3)" points="234.75,683.0967,530.75,683.0967,542.75,695.0967,530.75,707.0967,234.75,707.0967,222.75,695.0967,234.75,683.0967" style="stroke:#A80036;stroke-width:1.5;"/><text fill="#000000" font-family="sans-serif" font-size="11" lengthAdjust="spacing" textLength="296" x="234.75" y="699.5977">Кол-во неизмененных диаграмм = Кол-во всех диаграмм</text><text fill="#000000" font-family="sans-serif" font-size="11" lengthAdjust="spacing" textLength="22" x="200.75" y="692.6797">True</text><text fill="#000000" font-family="sans-serif" font-size="11" lengthAdjust="spacing" textLength="26" x="542.75" y="692.6797">False</text><rect fill="#FEFECE" filter="url(#f71bz347d1zr3)" height="35.0938" rx="12.5" ry="12.5" style="stroke:#A80036;stroke-width:1.5;" width="348" x="11" y="717.0967"/><text fill="#000000" font-family="sans-serif" font-size="12" lengthAdjust="spacing" textLength="328" x="21" y="739.5537">Вывести сообщение об отсутствии измененных диаграмм</text><rect fill="#FEFECE" filter="url(#f71bz347d1zr3)" height="35.0938" rx="12.5" ry="12.5" style="stroke:#A80036;stroke-width:1.5;" width="265" x="52.5" y="772.1904"/><text fill="#000000" font-family="sans-serif" font-size="12" lengthAdjust="spacing" textLength="245" x="62.5" y="794.6475">Вывести сообщение об успешном коммите</text><ellipse cx="185" cy="838.2842" fill="#FFFFFF" filter="url(#f71bz347d1zr3)" rx="11" ry="11" style="stroke:#000000;stroke-width:1.0;"/><ellipse cx="185" cy="838.2842" fill="#000000" rx="6" ry="6" style="stroke:#7F7F7F;stroke-width:1.0;"/><rect fill="#FEFECE" filter="url(#f71bz347d1zr3)" height="35.0938" rx="12.5" ry="12.5" style="stroke:#A80036;stroke-width:1.5;" width="330" x="415.5" y="717.0967"/><text fill="#000000" font-family="sans-serif" font-size="12" lengthAdjust="spacing" textLength="310" x="425.5" y="739.5537">Вывести сообщение о наличии измененных диаграмм</text><rect fill="#FEFECE" filter="url(#f71bz347d1zr3)" height="35.0938" rx="12.5" ry="12.5" style="stroke:#A80036;stroke-width:1.5;" width="290" x="435.5" y="772.1904"/><text fill="#000000" font-family="sans-serif" font-size="12" lengthAdjust="spacing" textLength="270" x="445.5" y="794.6475">Добавить измененные диаграммы в stage зону</text><rect fill="#FEFECE" filter="url(#f71bz347d1zr3)" height="35.0938" rx="12.5" ry="12.5" style="stroke:#A80036;stroke-width:1.5;" width="403" x="379" y="827.2842"/><text fill="#000000" font-family="sans-serif" font-size="12" lengthAdjust="spacing" textLength="383" x="389" y="849.7412">Вывести сообщение о необходимости повторного запуска коммита</text><rect fill="#FEFECE" filter="url(#f71bz347d1zr3)" height="35.0938" rx="12.5" ry="12.5" style="stroke:#A80036;stroke-width:1.5;" width="250" x="455.5" y="882.3779"/><text fill="#000000" font-family="sans-serif" font-size="12" lengthAdjust="spacing" textLength="230" x="465.5" y="904.835">Вывести сообщение об отмене коммита</text><rect fill="#FEFECE" filter="url(#f71bz347d1zr3)" height="35.0938" rx="12.5" ry="12.5" style="stroke:#A80036;stroke-width:1.5;" width="169" x="496" y="937.4717"/><text fill="#000000" font-family="sans-serif" font-size="12" lengthAdjust="spacing" textLength="149" x="506" y="959.9287">Отменить запуск коммита</text><ellipse cx="580.5" cy="1003.5654" fill="#FFFFFF" filter="url(#f71bz347d1zr3)" rx="11" ry="11" style="stroke:#000000;stroke-width:1.0;"/><ellipse cx="580.5" cy="1003.5654" fill="#000000" rx="6" ry="6" style="stroke:#7F7F7F;stroke-width:1.0;"/><line style="stroke:#A80036;stroke-width:1.5;" x1="382.75" x2="382.75" y1="30" y2="50"/><polygon fill="#A80036" points="378.75,40,382.75,50,386.75,40,382.75,44" style="stroke:#A80036;stroke-width:1.0;"/><line style="stroke:#A80036;stroke-width:1.5;" x1="382.75" x2="382.75" y1="184.1875" y2="204.1875"/><polygon fill="#A80036" points="378.75,194.1875,382.75,204.1875,386.75,194.1875,382.75,198.1875" style="stroke:#A80036;stroke-width:1.0;"/><line style="stroke:#A80036;stroke-width:1.5;" x1="382.75" x2="382.75" y1="239.2813" y2="259.2813"/><polygon fill="#A80036" points="378.75,249.2813,382.75,259.2813,386.75,249.2813,382.75,253.2813" style="stroke:#A80036;stroke-width:1.0;"/><line style="stroke:#A80036;stroke-width:1.5;" x1="382.75" x2="382.75" y1="294.375" y2="314.375"/><polygon fill="#A80036" points="378.75,304.375,382.75,314.375,386.75,304.375,382.75,308.375" style="stroke:#A80036;stroke-width:1.0;"/><line style="stroke:#A80036;stroke-width:1.5;" x1="382.75" x2="382.75" y1="349.4688" y2="372.4688"/><polygon fill="#A80036" points="378.75,362.4688,382.75,372.4688,386.75,362.4688,382.75,366.4688" style="stroke:#A80036;stroke-width:1.0;"/><line style="stroke:#A80036;stroke-width:1.5;" x1="261.75" x2="251.75" y1="439.5625" y2="439.5625"/><line style="stroke:#A80036;stroke-width:1.5;" x1="251.75" x2="251.75" y1="439.5625" y2="461.5625"/><polygon fill="#A80036" points="247.75,451.5625,251.75,461.5625,255.75,451.5625,251.75,455.5625" style="stroke:#A80036;stroke-width:1.0;"/><line style="stroke:#A80036;stroke-width:1.5;" x1="503.75" x2="513.75" y1="439.5625" y2="439.5625"/><line style="stroke:#A80036;stroke-width:1.5;" x1="513.75" x2="513.75" y1="439.5625" y2="461.5625"/><polygon fill="#A80036" points="509.75,451.5625,513.75,461.5625,517.75,451.5625,513.75,455.5625" style="stroke:#A80036;stroke-width:1.0;"/><line style="stroke:#A80036;stroke-width:1.5;" x1="251.75" x2="251.75" y1="511.75" y2="529.75"/><line style="stroke:#A80036;stroke-width:1.5;" x1="251.75" x2="370.75" y1="529.75" y2="529.75"/><polygon fill="#A80036" points="360.75,525.75,370.75,529.75,360.75,533.75,364.75,529.75" style="stroke:#A80036;stroke-width:1.0;"/><line style="stroke:#A80036;stroke-width:1.5;" x1="513.75" x2="513.75" y1="496.6563" y2="529.75"/><line style="stroke:#A80036;stroke-width:1.5;" x1="513.75" x2="394.75" y1="529.75" y2="529.75"/><polygon fill="#A80036" points="404.75,525.75,394.75,529.75,404.75,533.75,400.75,529.75" style="stroke:#A80036;stroke-width:1.0;"/><line style="stroke:#A80036;stroke-width:1.5;" x1="382.75" x2="382.75" y1="407.5625" y2="427.5625"/><polygon fill="#A80036" points="378.75,417.5625,382.75,427.5625,386.75,417.5625,382.75,421.5625" style="stroke:#A80036;stroke-width:1.0;"/><line style="stroke:#A80036;stroke-width:1.5;" x1="382.75" x2="382.75" y1="541.75" y2="561.75"/><polygon fill="#A80036" points="378.75,551.75,382.75,561.75,386.75,551.75,382.75,555.75" style="stroke:#A80036;stroke-width:1.0;"/><line style="stroke:#A80036;stroke-width:1.5;" x1="382.75" x2="382.75" y1="129.0938" y2="149.0938"/><polygon fill="#A80036" points="378.75,139.0938,382.75,149.0938,386.75,139.0938,382.75,143.0938" style="stroke:#A80036;stroke-width:1.0;"/><line style="stroke:#A80036;stroke-width:1.5;" x1="454.75" x2="654.25" y1="628.8438" y2="628.8438"/><polygon fill="#A80036" points="650.25,369.4688,654.25,359.4688,658.25,369.4688,654.25,365.4688" style="stroke:#A80036;stroke-width:1.5;"/><line style="stroke:#A80036;stroke-width:1.5;" x1="654.25" x2="654.25" y1="117.0938" y2="628.8438"/><line style="stroke:#A80036;stroke-width:1.5;" x1="654.25" x2="394.75" y1="117.0938" y2="117.0938"/><polygon fill="#A80036" points="404.75,113.0938,394.75,117.0938,404.75,121.0938,400.75,117.0938" style="stroke:#A80036;stroke-width:1.0;"/><line style="stroke:#A80036;stroke-width:1.5;" x1="382.75" x2="382.75" y1="596.8438" y2="616.8438"/><polygon fill="#A80036" points="378.75,606.8438,382.75,616.8438,386.75,606.8438,382.75,610.8438" style="stroke:#A80036;stroke-width:1.0;"/><line style="stroke:#A80036;stroke-width:1.5;" x1="382.75" x2="382.75" y1="85.0938" y2="105.0938"/><polygon fill="#A80036" points="378.75,95.0938,382.75,105.0938,386.75,95.0938,382.75,99.0938" style="stroke:#A80036;stroke-width:1.0;"/><line style="stroke:#A80036;stroke-width:1.5;" x1="185" x2="185" y1="752.1904" y2="772.1904"/><polygon fill="#A80036" points="181,762.1904,185,772.1904,189,762.1904,185,766.1904" style="stroke:#A80036;stroke-width:1.0;"/><line style="stroke:#A80036;stroke-width:1.5;" x1="185" x2="185" y1="807.2842" y2="827.2842"/><polygon fill="#A80036" points="181,817.2842,185,827.2842,189,817.2842,185,821.2842" style="stroke:#A80036;stroke-width:1.0;"/><line style="stroke:#A80036;stroke-width:1.5;" x1="580.5" x2="580.5" y1="752.1904" y2="772.1904"/><polygon fill="#A80036" points="576.5,762.1904,580.5,772.1904,584.5,762.1904,580.5,766.1904" style="stroke:#A80036;stroke-width:1.0;"/><line style="stroke:#A80036;stroke-width:1.5;" x1="580.5" x2="580.5" y1="807.2842" y2="827.2842"/><polygon fill="#A80036" points="576.5,817.2842,580.5,827.2842,584.5,817.2842,580.5,821.2842" style="stroke:#A80036;stroke-width:1.0;"/><line style="stroke:#A80036;stroke-width:1.5;" x1="580.5" x2="580.5" y1="862.3779" y2="882.3779"/><polygon fill="#A80036" points="576.5,872.3779,580.5,882.3779,584.5,872.3779,580.5,876.3779" style="stroke:#A80036;stroke-width:1.0;"/><line style="stroke:#A80036;stroke-width:1.5;" x1="580.5" x2="580.5" y1="917.4717" y2="937.4717"/><polygon fill="#A80036" points="576.5,927.4717,580.5,937.4717,584.5,927.4717,580.5,931.4717" style="stroke:#A80036;stroke-width:1.0;"/><line style="stroke:#A80036;stroke-width:1.5;" x1="580.5" x2="580.5" y1="972.5654" y2="992.5654"/><polygon fill="#A80036" points="576.5,982.5654,580.5,992.5654,584.5,982.5654,580.5,986.5654" style="stroke:#A80036;stroke-width:1.0;"/><line style="stroke:#A80036;stroke-width:1.5;" x1="222.75" x2="185" y1="695.0967" y2="695.0967"/><line style="stroke:#A80036;stroke-width:1.5;" x1="185" x2="185" y1="695.0967" y2="717.0967"/><polygon fill="#A80036" points="181,707.0967,185,717.0967,189,707.0967,185,711.0967" style="stroke:#A80036;stroke-width:1.0;"/><line style="stroke:#A80036;stroke-width:1.5;" x1="542.75" x2="580.5" y1="695.0967" y2="695.0967"/><line style="stroke:#A80036;stroke-width:1.5;" x1="580.5" x2="580.5" y1="695.0967" y2="717.0967"/><polygon fill="#A80036" points="576.5,707.0967,580.5,717.0967,584.5,707.0967,580.5,711.0967" style="stroke:#A80036;stroke-width:1.0;"/><line style="stroke:#A80036;stroke-width:1.5;" x1="382.75" x2="382.75" y1="640.8438" y2="683.0967"/><polygon fill="#A80036" points="378.75,673.0967,382.75,683.0967,386.75,673.0967,382.75,677.0967" style="stroke:#A80036;stroke-width:1.0;"/><text fill="#000000" font-family="sans-serif" font-size="11" lengthAdjust="spacing" textLength="14" x="386.75" y="663.1797">Да</text><!--MD5=[8f476a8bf182f5076ee6b38e9bf7dcae]
@startuml Example.svg
start

:Считать папку репозитория и файлы из репозитория в список;
repeat
  :Перейти в подкаталог;
  :Создать временную папку;
  :Переместить в нее текущие SVG-диаграммы;
  :Скомпилировать новые SVG-диаграммы;
  :Сравнить текущие и новые SVG-диаграммы;
  
  if (Есть хотя бы одна измененная диаграмма) then (Нет)
    :Увеличить количество \nнеизмененных диаграмм;
  else (Да)
    :Вывести имя измененной диаграммы;
  endif
  :Удалить временную папку;
     
repeat while (последний подкаталог?) is (Нет)
->Да;
if (Кол-во неизмененных диаграмм = Кол-во всех диаграмм) then (True)
  :Вывести сообщение об отсутствии измененных диаграмм;
  :Вывести сообщение об успешном коммите;
  stop
else (False)
  :Вывести сообщение о наличии измененных диаграмм;
  
  :Добавить измененные диаграммы в stage зону;
  :Вывести сообщение о необходимости повторного запуска коммита;
  :Вывести сообщение об отмене коммита;
  :Отменить запуск коммита;
  stop
endif
@enduml

PlantUML version 1.2021.00(Sun Jan 10 15:25:05 YEKT 2021)
(GPL source distribution)
Java Runtime: Java(TM) SE Runtime Environment
JVM: Java HotSpot(TM) 64-Bit Server VM
Default Encoding: UTF-8
Language: ru
Country: RU
--></g></svg>